{
    "full_name": "Wesley Schwengle",
    "email": "wesley@opndev.io",
    "gitlab_username": "waterkip",
    "repo_name": "somerepo",
    "namespace": "SomeRepo",
    "project_name": "Some repo",
    "project_short_description": "Some repo does things",
    "version": "0.0.1",
    "use_hooks": [ "yes", "no" ],
    "type" : [ "lib", "app", "php" ],
    "dc_service": "php"
}
